   _____       _            __                    _          _____                                          ___   ____  ____  ____ 
  / ___/____ _(_)___  _____/ /_  __  _________  _( )_____   / ___/______________ _____  ____  ___  _____   |__ \ / __ \/ __ \/ __ \
  \__ \/ __ `/ / __ \/ ___/ __ \/ / / / ___/ / / /// ___/   \__ \/ ___/ ___/ __ `/ __ \/ __ \/ _ \/ ___/   __/ // / / / / / / / / /
 ___/ / /_/ / / / / (__  ) /_/ / /_/ / /  / /_/ / (__  )   ___/ / /__/ /  / /_/ / /_/ / /_/ /  __/ /      / __// /_/ / /_/ / /_/ / 
/____/\__,_/_/_/ /_/____/_.___/\__,_/_/   \__, / /____/   /____/\___/_/   \__,_/ .___/ .___/\___/_/      /____/\____/\____/\____/  
                                         /____/                               /_/   /_/      
                                         
                                                                             